-- Merging decision tree log ---
manifest
ADDED from /Users/ramzisai/Projects/MovieViewer/app/src/main/AndroidManifest.xml:1:1-27:12
INJECTED from /Users/ramzisai/Projects/MovieViewer/app/src/main/AndroidManifest.xml:1:1-27:12
INJECTED from /Users/ramzisai/Projects/MovieViewer/app/src/main/AndroidManifest.xml:1:1-27:12
INJECTED from /Users/ramzisai/Projects/MovieViewer/app/src/main/AndroidManifest.xml:1:1-27:12
MERGED from [com.android.support:design:27.1.0] /Users/ramzisai/.gradle/caches/transforms-1/files-1.1/design-27.1.0.aar/559300dc4ac2711b52d2d3d8c0f973a2/AndroidManifest.xml:17:1-22:12
MERGED from [com.android.support:appcompat-v7:27.1.0] /Users/ramzisai/.gradle/caches/transforms-1/files-1.1/appcompat-v7-27.1.0.aar/fd1be39c3d976e3f1ec63729f3888686/AndroidManifest.xml:17:1-22:12
MERGED from [com.android.support:recyclerview-v7:27.1.0] /Users/ramzisai/.gradle/caches/transforms-1/files-1.1/recyclerview-v7-27.1.0.aar/05e64237fd7dcf5a707f1e5bf293c90f/AndroidManifest.xml:17:1-22:12
MERGED from [com.android.support.constraint:constraint-layout:1.1.2] /Users/ramzisai/.gradle/caches/transforms-1/files-1.1/constraint-layout-1.1.2.aar/a9ebfa38470b4b4235a0533118768489/AndroidManifest.xml:2:1-11:12
MERGED from [com.jakewharton:butterknife:8.4.0] /Users/ramzisai/.gradle/caches/transforms-1/files-1.1/butterknife-8.4.0.aar/1ec789141905fafde56d110e14cb8fea/AndroidManifest.xml:2:1-7:12
MERGED from [com.google.dagger:dagger-android:2.16] /Users/ramzisai/.gradle/caches/transforms-1/files-1.1/dagger-android-2.16.aar/9f0146ece870a7214dcf4c1a0fdeb591/AndroidManifest.xml:17:1-22:12
MERGED from [io.reactivex.rxjava2:rxandroid:2.0.2] /Users/ramzisai/.gradle/caches/transforms-1/files-1.1/rxandroid-2.0.2.aar/54ed483e245318b9a111d2677f19edbc/AndroidManifest.xml:15:1-21:12
MERGED from [com.squareup.picasso:picasso:2.71828] /Users/ramzisai/.gradle/caches/transforms-1/files-1.1/picasso-2.71828.aar/a525ca4f70fc017fbdfd33ad8fd06a79/AndroidManifest.xml:2:1-14:12
MERGED from [com.android.support:support-v4:27.1.0] /Users/ramzisai/.gradle/caches/transforms-1/files-1.1/support-v4-27.1.0.aar/f1cf616bfcfef092d79602bc53dbbdd7/AndroidManifest.xml:17:1-22:12
MERGED from [com.android.support:support-fragment:27.1.0] /Users/ramzisai/.gradle/caches/transforms-1/files-1.1/support-fragment-27.1.0.aar/03b1103c3d7768120101c15c60819875/AndroidManifest.xml:17:1-22:12
MERGED from [com.android.support:animated-vector-drawable:27.1.0] /Users/ramzisai/.gradle/caches/transforms-1/files-1.1/animated-vector-drawable-27.1.0.aar/46a35e2fcb9b654c534a2a7eeeb02b39/AndroidManifest.xml:17:1-22:12
MERGED from [com.android.support:support-core-ui:27.1.0] /Users/ramzisai/.gradle/caches/transforms-1/files-1.1/support-core-ui-27.1.0.aar/9337aa2ee903f389d6373794d72f4aed/AndroidManifest.xml:17:1-22:12
MERGED from [com.android.support:support-core-utils:27.1.0] /Users/ramzisai/.gradle/caches/transforms-1/files-1.1/support-core-utils-27.1.0.aar/e1bab5647875068b5ea4c916cefcfcb6/AndroidManifest.xml:17:1-22:12
MERGED from [com.android.support:support-vector-drawable:27.1.0] /Users/ramzisai/.gradle/caches/transforms-1/files-1.1/support-vector-drawable-27.1.0.aar/919d8cbd4005f067c6324b04ee020e0b/AndroidManifest.xml:17:1-22:12
MERGED from [com.android.support:transition:27.1.0] /Users/ramzisai/.gradle/caches/transforms-1/files-1.1/transition-27.1.0.aar/65418eb8ec42768d1b69092690f08d86/AndroidManifest.xml:17:1-22:12
MERGED from [com.android.support:support-media-compat:27.1.0] /Users/ramzisai/.gradle/caches/transforms-1/files-1.1/support-media-compat-27.1.0.aar/d93f8923136b0e3f292129471a405c94/AndroidManifest.xml:17:1-22:12
MERGED from [com.android.support:support-compat:27.1.0] /Users/ramzisai/.gradle/caches/transforms-1/files-1.1/support-compat-27.1.0.aar/b7a7d99d4c30ab6a3431427855ca8807/AndroidManifest.xml:17:1-22:12
MERGED from [com.android.support:exifinterface:27.1.0] /Users/ramzisai/.gradle/caches/transforms-1/files-1.1/exifinterface-27.1.0.aar/c88db8d9f094b1e05736c7af0a2da865/AndroidManifest.xml:17:1-22:12
MERGED from [android.arch.lifecycle:livedata-core:1.1.0] /Users/ramzisai/.gradle/caches/transforms-1/files-1.1/livedata-core-1.1.0.aar/6f418adf990957814f763f3c928c1b83/AndroidManifest.xml:17:1-22:12
MERGED from [android.arch.lifecycle:viewmodel:1.1.0] /Users/ramzisai/.gradle/caches/transforms-1/files-1.1/viewmodel-1.1.0.aar/e414ab8094eb706be0d652d2d7dee01e/AndroidManifest.xml:17:1-22:12
MERGED from [android.arch.lifecycle:runtime:1.1.0] /Users/ramzisai/.gradle/caches/transforms-1/files-1.1/runtime-1.1.0.aar/d11c665479a98eb4d95c1447e6468f9e/AndroidManifest.xml:17:1-22:12
MERGED from [android.arch.core:runtime:1.1.0] /Users/ramzisai/.gradle/caches/transforms-1/files-1.1/runtime-1.1.0.aar/c0ae1fda8b6a1c731c9a88dab67938a8/AndroidManifest.xml:17:1-22:12
INJECTED from /Users/ramzisai/Projects/MovieViewer/app/src/main/AndroidManifest.xml:1:1-27:12
INJECTED from /Users/ramzisai/Projects/MovieViewer/app/src/main/AndroidManifest.xml:1:1-27:12
INJECTED from /Users/ramzisai/Projects/MovieViewer/app/src/main/AndroidManifest.xml:1:1-27:12
	package
		ADDED from /Users/ramzisai/Projects/MovieViewer/app/src/main/AndroidManifest.xml:2:5-36
		INJECTED from /Users/ramzisai/Projects/MovieViewer/app/src/main/AndroidManifest.xml
		INJECTED from /Users/ramzisai/Projects/MovieViewer/app/src/main/AndroidManifest.xml
	android:versionName
		INJECTED from /Users/ramzisai/Projects/MovieViewer/app/src/main/AndroidManifest.xml
		ADDED from /Users/ramzisai/Projects/MovieViewer/app/src/main/AndroidManifest.xml:1:1-27:12
		INJECTED from /Users/ramzisai/Projects/MovieViewer/app/src/main/AndroidManifest.xml
	android:versionCode
		INJECTED from /Users/ramzisai/Projects/MovieViewer/app/src/main/AndroidManifest.xml
		ADDED from /Users/ramzisai/Projects/MovieViewer/app/src/main/AndroidManifest.xml:1:1-27:12
		INJECTED from /Users/ramzisai/Projects/MovieViewer/app/src/main/AndroidManifest.xml
	xmlns:android
		ADDED from /Users/ramzisai/Projects/MovieViewer/app/src/main/AndroidManifest.xml:1:11-69
uses-permission#android.permission.INTERNET
ADDED from /Users/ramzisai/Projects/MovieViewer/app/src/main/AndroidManifest.xml:4:5-67
	android:name
		ADDED from /Users/ramzisai/Projects/MovieViewer/app/src/main/AndroidManifest.xml:4:22-64
application
ADDED from /Users/ramzisai/Projects/MovieViewer/app/src/main/AndroidManifest.xml:6:5-26:19
MERGED from [com.android.support.constraint:constraint-layout:1.1.2] /Users/ramzisai/.gradle/caches/transforms-1/files-1.1/constraint-layout-1.1.2.aar/a9ebfa38470b4b4235a0533118768489/AndroidManifest.xml:9:5-20
MERGED from [com.android.support.constraint:constraint-layout:1.1.2] /Users/ramzisai/.gradle/caches/transforms-1/files-1.1/constraint-layout-1.1.2.aar/a9ebfa38470b4b4235a0533118768489/AndroidManifest.xml:9:5-20
MERGED from [com.squareup.picasso:picasso:2.71828] /Users/ramzisai/.gradle/caches/transforms-1/files-1.1/picasso-2.71828.aar/a525ca4f70fc017fbdfd33ad8fd06a79/AndroidManifest.xml:7:5-12:19
MERGED from [com.squareup.picasso:picasso:2.71828] /Users/ramzisai/.gradle/caches/transforms-1/files-1.1/picasso-2.71828.aar/a525ca4f70fc017fbdfd33ad8fd06a79/AndroidManifest.xml:7:5-12:19
	android:supportsRtl
		ADDED from /Users/ramzisai/Projects/MovieViewer/app/src/main/AndroidManifest.xml:11:9-35
	android:label
		ADDED from /Users/ramzisai/Projects/MovieViewer/app/src/main/AndroidManifest.xml:9:9-41
	android:roundIcon
		ADDED from /Users/ramzisai/Projects/MovieViewer/app/src/main/AndroidManifest.xml:10:9-54
	android:icon
		ADDED from /Users/ramzisai/Projects/MovieViewer/app/src/main/AndroidManifest.xml:8:9-43
	android:allowBackup
		ADDED from /Users/ramzisai/Projects/MovieViewer/app/src/main/AndroidManifest.xml:7:9-35
	android:theme
		ADDED from /Users/ramzisai/Projects/MovieViewer/app/src/main/AndroidManifest.xml:12:9-40
activity#com.ramzi.movieviewer.presentation.movielist.view.MovieListActivity
ADDED from /Users/ramzisai/Projects/MovieViewer/app/src/main/AndroidManifest.xml:14:9-22:20
	android:label
		ADDED from /Users/ramzisai/Projects/MovieViewer/app/src/main/AndroidManifest.xml:16:13-62
	android:name
		ADDED from /Users/ramzisai/Projects/MovieViewer/app/src/main/AndroidManifest.xml:15:13-74
intent-filter#action:name:android.intent.action.MAIN+category:name:android.intent.category.LAUNCHER
ADDED from /Users/ramzisai/Projects/MovieViewer/app/src/main/AndroidManifest.xml:17:13-21:29
action#android.intent.action.MAIN
ADDED from /Users/ramzisai/Projects/MovieViewer/app/src/main/AndroidManifest.xml:18:17-69
	android:name
		ADDED from /Users/ramzisai/Projects/MovieViewer/app/src/main/AndroidManifest.xml:18:25-66
category#android.intent.category.LAUNCHER
ADDED from /Users/ramzisai/Projects/MovieViewer/app/src/main/AndroidManifest.xml:20:17-77
	android:name
		ADDED from /Users/ramzisai/Projects/MovieViewer/app/src/main/AndroidManifest.xml:20:27-74
activity#com.ramzi.movieviewer.presentation.moviedetails.view.MovieDetailsActivity
ADDED from /Users/ramzisai/Projects/MovieViewer/app/src/main/AndroidManifest.xml:24:9-89
	android:name
		ADDED from /Users/ramzisai/Projects/MovieViewer/app/src/main/AndroidManifest.xml:24:19-86
uses-sdk
INJECTED from /Users/ramzisai/Projects/MovieViewer/app/src/main/AndroidManifest.xml reason: use-sdk injection requested
INJECTED from /Users/ramzisai/Projects/MovieViewer/app/src/main/AndroidManifest.xml
INJECTED from /Users/ramzisai/Projects/MovieViewer/app/src/main/AndroidManifest.xml
MERGED from [com.android.support:design:27.1.0] /Users/ramzisai/.gradle/caches/transforms-1/files-1.1/design-27.1.0.aar/559300dc4ac2711b52d2d3d8c0f973a2/AndroidManifest.xml:20:5-44
MERGED from [com.android.support:design:27.1.0] /Users/ramzisai/.gradle/caches/transforms-1/files-1.1/design-27.1.0.aar/559300dc4ac2711b52d2d3d8c0f973a2/AndroidManifest.xml:20:5-44
MERGED from [com.android.support:appcompat-v7:27.1.0] /Users/ramzisai/.gradle/caches/transforms-1/files-1.1/appcompat-v7-27.1.0.aar/fd1be39c3d976e3f1ec63729f3888686/AndroidManifest.xml:20:5-44
MERGED from [com.android.support:appcompat-v7:27.1.0] /Users/ramzisai/.gradle/caches/transforms-1/files-1.1/appcompat-v7-27.1.0.aar/fd1be39c3d976e3f1ec63729f3888686/AndroidManifest.xml:20:5-44
MERGED from [com.android.support:recyclerview-v7:27.1.0] /Users/ramzisai/.gradle/caches/transforms-1/files-1.1/recyclerview-v7-27.1.0.aar/05e64237fd7dcf5a707f1e5bf293c90f/AndroidManifest.xml:20:5-44
MERGED from [com.android.support:recyclerview-v7:27.1.0] /Users/ramzisai/.gradle/caches/transforms-1/files-1.1/recyclerview-v7-27.1.0.aar/05e64237fd7dcf5a707f1e5bf293c90f/AndroidManifest.xml:20:5-44
MERGED from [com.android.support.constraint:constraint-layout:1.1.2] /Users/ramzisai/.gradle/caches/transforms-1/files-1.1/constraint-layout-1.1.2.aar/a9ebfa38470b4b4235a0533118768489/AndroidManifest.xml:5:5-7:41
MERGED from [com.android.support.constraint:constraint-layout:1.1.2] /Users/ramzisai/.gradle/caches/transforms-1/files-1.1/constraint-layout-1.1.2.aar/a9ebfa38470b4b4235a0533118768489/AndroidManifest.xml:5:5-7:41
MERGED from [com.jakewharton:butterknife:8.4.0] /Users/ramzisai/.gradle/caches/transforms-1/files-1.1/butterknife-8.4.0.aar/1ec789141905fafde56d110e14cb8fea/AndroidManifest.xml:5:5-43
MERGED from [com.jakewharton:butterknife:8.4.0] /Users/ramzisai/.gradle/caches/transforms-1/files-1.1/butterknife-8.4.0.aar/1ec789141905fafde56d110e14cb8fea/AndroidManifest.xml:5:5-43
MERGED from [com.google.dagger:dagger-android:2.16] /Users/ramzisai/.gradle/caches/transforms-1/files-1.1/dagger-android-2.16.aar/9f0146ece870a7214dcf4c1a0fdeb591/AndroidManifest.xml:20:5-44
MERGED from [com.google.dagger:dagger-android:2.16] /Users/ramzisai/.gradle/caches/transforms-1/files-1.1/dagger-android-2.16.aar/9f0146ece870a7214dcf4c1a0fdeb591/AndroidManifest.xml:20:5-44
MERGED from [io.reactivex.rxjava2:rxandroid:2.0.2] /Users/ramzisai/.gradle/caches/transforms-1/files-1.1/rxandroid-2.0.2.aar/54ed483e245318b9a111d2677f19edbc/AndroidManifest.xml:19:5-43
MERGED from [io.reactivex.rxjava2:rxandroid:2.0.2] /Users/ramzisai/.gradle/caches/transforms-1/files-1.1/rxandroid-2.0.2.aar/54ed483e245318b9a111d2677f19edbc/AndroidManifest.xml:19:5-43
MERGED from [com.squareup.picasso:picasso:2.71828] /Users/ramzisai/.gradle/caches/transforms-1/files-1.1/picasso-2.71828.aar/a525ca4f70fc017fbdfd33ad8fd06a79/AndroidManifest.xml:5:5-44
MERGED from [com.squareup.picasso:picasso:2.71828] /Users/ramzisai/.gradle/caches/transforms-1/files-1.1/picasso-2.71828.aar/a525ca4f70fc017fbdfd33ad8fd06a79/AndroidManifest.xml:5:5-44
MERGED from [com.android.support:support-v4:27.1.0] /Users/ramzisai/.gradle/caches/transforms-1/files-1.1/support-v4-27.1.0.aar/f1cf616bfcfef092d79602bc53dbbdd7/AndroidManifest.xml:20:5-44
MERGED from [com.android.support:support-v4:27.1.0] /Users/ramzisai/.gradle/caches/transforms-1/files-1.1/support-v4-27.1.0.aar/f1cf616bfcfef092d79602bc53dbbdd7/AndroidManifest.xml:20:5-44
MERGED from [com.android.support:support-fragment:27.1.0] /Users/ramzisai/.gradle/caches/transforms-1/files-1.1/support-fragment-27.1.0.aar/03b1103c3d7768120101c15c60819875/AndroidManifest.xml:20:5-44
MERGED from [com.android.support:support-fragment:27.1.0] /Users/ramzisai/.gradle/caches/transforms-1/files-1.1/support-fragment-27.1.0.aar/03b1103c3d7768120101c15c60819875/AndroidManifest.xml:20:5-44
MERGED from [com.android.support:animated-vector-drawable:27.1.0] /Users/ramzisai/.gradle/caches/transforms-1/files-1.1/animated-vector-drawable-27.1.0.aar/46a35e2fcb9b654c534a2a7eeeb02b39/AndroidManifest.xml:20:5-44
MERGED from [com.android.support:animated-vector-drawable:27.1.0] /Users/ramzisai/.gradle/caches/transforms-1/files-1.1/animated-vector-drawable-27.1.0.aar/46a35e2fcb9b654c534a2a7eeeb02b39/AndroidManifest.xml:20:5-44
MERGED from [com.android.support:support-core-ui:27.1.0] /Users/ramzisai/.gradle/caches/transforms-1/files-1.1/support-core-ui-27.1.0.aar/9337aa2ee903f389d6373794d72f4aed/AndroidManifest.xml:20:5-44
MERGED from [com.android.support:support-core-ui:27.1.0] /Users/ramzisai/.gradle/caches/transforms-1/files-1.1/support-core-ui-27.1.0.aar/9337aa2ee903f389d6373794d72f4aed/AndroidManifest.xml:20:5-44
MERGED from [com.android.support:support-core-utils:27.1.0] /Users/ramzisai/.gradle/caches/transforms-1/files-1.1/support-core-utils-27.1.0.aar/e1bab5647875068b5ea4c916cefcfcb6/AndroidManifest.xml:20:5-44
MERGED from [com.android.support:support-core-utils:27.1.0] /Users/ramzisai/.gradle/caches/transforms-1/files-1.1/support-core-utils-27.1.0.aar/e1bab5647875068b5ea4c916cefcfcb6/AndroidManifest.xml:20:5-44
MERGED from [com.android.support:support-vector-drawable:27.1.0] /Users/ramzisai/.gradle/caches/transforms-1/files-1.1/support-vector-drawable-27.1.0.aar/919d8cbd4005f067c6324b04ee020e0b/AndroidManifest.xml:20:5-44
MERGED from [com.android.support:support-vector-drawable:27.1.0] /Users/ramzisai/.gradle/caches/transforms-1/files-1.1/support-vector-drawable-27.1.0.aar/919d8cbd4005f067c6324b04ee020e0b/AndroidManifest.xml:20:5-44
MERGED from [com.android.support:transition:27.1.0] /Users/ramzisai/.gradle/caches/transforms-1/files-1.1/transition-27.1.0.aar/65418eb8ec42768d1b69092690f08d86/AndroidManifest.xml:20:5-44
MERGED from [com.android.support:transition:27.1.0] /Users/ramzisai/.gradle/caches/transforms-1/files-1.1/transition-27.1.0.aar/65418eb8ec42768d1b69092690f08d86/AndroidManifest.xml:20:5-44
MERGED from [com.android.support:support-media-compat:27.1.0] /Users/ramzisai/.gradle/caches/transforms-1/files-1.1/support-media-compat-27.1.0.aar/d93f8923136b0e3f292129471a405c94/AndroidManifest.xml:20:5-44
MERGED from [com.android.support:support-media-compat:27.1.0] /Users/ramzisai/.gradle/caches/transforms-1/files-1.1/support-media-compat-27.1.0.aar/d93f8923136b0e3f292129471a405c94/AndroidManifest.xml:20:5-44
MERGED from [com.android.support:support-compat:27.1.0] /Users/ramzisai/.gradle/caches/transforms-1/files-1.1/support-compat-27.1.0.aar/b7a7d99d4c30ab6a3431427855ca8807/AndroidManifest.xml:20:5-44
MERGED from [com.android.support:support-compat:27.1.0] /Users/ramzisai/.gradle/caches/transforms-1/files-1.1/support-compat-27.1.0.aar/b7a7d99d4c30ab6a3431427855ca8807/AndroidManifest.xml:20:5-44
MERGED from [com.android.support:exifinterface:27.1.0] /Users/ramzisai/.gradle/caches/transforms-1/files-1.1/exifinterface-27.1.0.aar/c88db8d9f094b1e05736c7af0a2da865/AndroidManifest.xml:20:5-44
MERGED from [com.android.support:exifinterface:27.1.0] /Users/ramzisai/.gradle/caches/transforms-1/files-1.1/exifinterface-27.1.0.aar/c88db8d9f094b1e05736c7af0a2da865/AndroidManifest.xml:20:5-44
MERGED from [android.arch.lifecycle:livedata-core:1.1.0] /Users/ramzisai/.gradle/caches/transforms-1/files-1.1/livedata-core-1.1.0.aar/6f418adf990957814f763f3c928c1b83/AndroidManifest.xml:20:5-44
MERGED from [android.arch.lifecycle:livedata-core:1.1.0] /Users/ramzisai/.gradle/caches/transforms-1/files-1.1/livedata-core-1.1.0.aar/6f418adf990957814f763f3c928c1b83/AndroidManifest.xml:20:5-44
MERGED from [android.arch.lifecycle:viewmodel:1.1.0] /Users/ramzisai/.gradle/caches/transforms-1/files-1.1/viewmodel-1.1.0.aar/e414ab8094eb706be0d652d2d7dee01e/AndroidManifest.xml:20:5-44
MERGED from [android.arch.lifecycle:viewmodel:1.1.0] /Users/ramzisai/.gradle/caches/transforms-1/files-1.1/viewmodel-1.1.0.aar/e414ab8094eb706be0d652d2d7dee01e/AndroidManifest.xml:20:5-44
MERGED from [android.arch.lifecycle:runtime:1.1.0] /Users/ramzisai/.gradle/caches/transforms-1/files-1.1/runtime-1.1.0.aar/d11c665479a98eb4d95c1447e6468f9e/AndroidManifest.xml:20:5-44
MERGED from [android.arch.lifecycle:runtime:1.1.0] /Users/ramzisai/.gradle/caches/transforms-1/files-1.1/runtime-1.1.0.aar/d11c665479a98eb4d95c1447e6468f9e/AndroidManifest.xml:20:5-44
MERGED from [android.arch.core:runtime:1.1.0] /Users/ramzisai/.gradle/caches/transforms-1/files-1.1/runtime-1.1.0.aar/c0ae1fda8b6a1c731c9a88dab67938a8/AndroidManifest.xml:20:5-44
MERGED from [android.arch.core:runtime:1.1.0] /Users/ramzisai/.gradle/caches/transforms-1/files-1.1/runtime-1.1.0.aar/c0ae1fda8b6a1c731c9a88dab67938a8/AndroidManifest.xml:20:5-44
INJECTED from /Users/ramzisai/Projects/MovieViewer/app/src/main/AndroidManifest.xml
INJECTED from /Users/ramzisai/Projects/MovieViewer/app/src/main/AndroidManifest.xml
	android:targetSdkVersion
		INJECTED from /Users/ramzisai/Projects/MovieViewer/app/src/main/AndroidManifest.xml
		ADDED from /Users/ramzisai/Projects/MovieViewer/app/src/main/AndroidManifest.xml
		INJECTED from /Users/ramzisai/Projects/MovieViewer/app/src/main/AndroidManifest.xml
	android:minSdkVersion
		INJECTED from /Users/ramzisai/Projects/MovieViewer/app/src/main/AndroidManifest.xml
		ADDED from /Users/ramzisai/Projects/MovieViewer/app/src/main/AndroidManifest.xml
		INJECTED from /Users/ramzisai/Projects/MovieViewer/app/src/main/AndroidManifest.xml
provider#com.squareup.picasso.PicassoProvider
ADDED from [com.squareup.picasso:picasso:2.71828] /Users/ramzisai/.gradle/caches/transforms-1/files-1.1/picasso-2.71828.aar/a525ca4f70fc017fbdfd33ad8fd06a79/AndroidManifest.xml:8:9-11:40
	android:authorities
		ADDED from [com.squareup.picasso:picasso:2.71828] /Users/ramzisai/.gradle/caches/transforms-1/files-1.1/picasso-2.71828.aar/a525ca4f70fc017fbdfd33ad8fd06a79/AndroidManifest.xml:10:13-72
	android:exported
		ADDED from [com.squareup.picasso:picasso:2.71828] /Users/ramzisai/.gradle/caches/transforms-1/files-1.1/picasso-2.71828.aar/a525ca4f70fc017fbdfd33ad8fd06a79/AndroidManifest.xml:11:13-37
	android:name
		ADDED from [com.squareup.picasso:picasso:2.71828] /Users/ramzisai/.gradle/caches/transforms-1/files-1.1/picasso-2.71828.aar/a525ca4f70fc017fbdfd33ad8fd06a79/AndroidManifest.xml:9:13-64
